<?xml version="1.0" encoding="UTF-8" standalone="no"?>
<svg
   xmlns:dc="http://purl.org/dc/elements/1.1/"
   xmlns:cc="http://creativecommons.org/ns#"
   xmlns:rdf="http://www.w3.org/1999/02/22-rdf-syntax-ns#"
   xmlns:svg="http://www.w3.org/2000/svg"
   xmlns="http://www.w3.org/2000/svg"
   xmlns:sodipodi="http://sodipodi.sourceforge.net/DTD/sodipodi-0.dtd"
   xmlns:inkscape="http://www.inkscape.org/namespaces/inkscape"
   inkscape:export-ydpi="96"
   inkscape:export-xdpi="96"
   inkscape:version="1.0 (4035a4fb49, 2020-05-01)"
   sodipodi:docname="logo.svg"
   id="svg4"
   version="1.1"
   class="svg-inline--fa fa-shield fa-w-16 fa-9x"
   viewBox="0 0 512 512"
   role="img"
   data-icon="shield"
   data-prefix="fas"
   focusable="false"
   aria-hidden="true">
  <metadata
     id="metadata10">
    <rdf:RDF>
      <cc:Work
         rdf:about="">
        <dc:format>image/svg+xml</dc:format>
        <dc:type
           rdf:resource="http://purl.org/dc/dcmitype/StillImage" />
        <dc:title></dc:title>
      </cc:Work>
    </rdf:RDF>
  </metadata>
  <defs
     id="defs8" />
  <sodipodi:namedview
     inkscape:guide-bbox="true"
     showguides="false"
     inkscape:snap-to-guides="true"
     inkscape:snap-grids="true"
     inkscape:current-layer="layer3"
     inkscape:window-maximized="0"
     inkscape:window-y="28"
     inkscape:window-x="1920"
     inkscape:cy="251.32637"
     inkscape:cx="239.23679"
     inkscape:zoom="1.4994949"
     showgrid="false"
     id="namedview6"
     inkscape:window-height="1380"
     inkscape:window-width="1720"
     inkscape:pageshadow="2"
     inkscape:pageopacity="0"
     guidetolerance="10"
     gridtolerance="10"
     objecttolerance="10"
     borderopacity="1"
     bordercolor="#666666"
     pagecolor="#ffffff">
    <inkscape:grid
       id="grid837"
       type="xygrid" />
    <sodipodi:guide
       id="guide936"
       orientation="1,0"
       position="256.08186,412.05" />
    <sodipodi:guide
       id="guide938"
       orientation="0,-1"
       position="486.33565,255.46112" />
  </sodipodi:namedview>
  <path
     id="path2"
     data-darkreader-inline-fill=""
     style="fill:#00ffcc"
     class=""
     d="M466.5 83.7l-192-80a48.15 48.15 0 0 0-36.9 0l-192 80C27.7 91.1 16 108.6 16 128c0 198.5 114.5 335.7 221.5 380.3 11.8 4.9 25.1 4.9 36.9 0C360.1 472.6 496 349.3 496 128c0-19.4-11.7-36.9-29.5-44.3z"
     fill="currentColor" />
  <g
     sodipodi:insensitive="true"
     style="display:none"
     inkscape:label="lock"
     id="layer1"
     inkscape:groupmode="layer">
    <path
       id="path896"
       class=""
       d="m 351.12965,222.18008 h -12.9764 v -39.97704 c 0,-46.52883 -36.87461,-84.39598 -82.18387,-84.39598 -45.30925,0 -82.18386,37.86715 -82.18386,84.39598 v 39.97704 h -12.9764 c -14.3281,0 -25.95279,11.9376 -25.95279,26.65138 v 106.60545 c 0,14.71376 11.62469,26.65134 25.95279,26.65134 h 190.32053 c 14.32811,0 25.9528,-11.93758 25.9528,-26.65134 V 248.83146 c 0,-14.71378 -11.62469,-26.65138 -25.9528,-26.65138 z m -56.23106,0 H 217.0402 v -39.97704 c 0,-22.04289 17.46405,-39.97704 38.92918,-39.97704 21.46513,0 38.92921,17.93415 38.92921,39.97704 z"
       fill="currentColor"
       style="stroke-width:0.547911"
       inkscape:export-xdpi="96"
       inkscape:export-ydpi="96" />
  </g>
  <g
     sodipodi:insensitive="true"
     style="display:none"
     inkscape:label="pen"
     id="layer2"
     inkscape:groupmode="layer">
    <path
       style="stroke-width:0.552725"
       fill="currentColor"
       d="m 208.47697,173.9029 a 35.376073,35.376073 0 0 0 -23.93854,22.8552 l -51.56373,154.68567 8.11954,8.11954 82.96958,-82.96958 c -1.65265,-3.46007 -2.65308,-7.28491 -2.65308,-11.37509 0,-14.65274 11.87807,-26.53082 26.53081,-26.53082 14.65275,0 26.53082,11.87808 26.53082,26.53082 0,14.65274 -11.87807,26.53082 -26.53082,26.53082 -4.09017,0 -7.91502,-1.00044 -11.37509,-2.65308 l -82.96958,82.96958 8.11954,8.11953 154.68567,-51.56373 a 35.376073,35.376073 0 0 0 22.8552,-23.93854 l 23.65111,-83.68259 -70.74884,-70.74884 z m 199.72174,-35.7171 -33.22432,-33.22433 c -10.36359,-10.363599 -27.17197,-10.363599 -37.53557,0 l -31.25661,31.25662 70.75989,70.7599 31.25661,-31.25661 c 10.36359,-10.3636 10.36359,-27.16646 0,-37.53558 z"
       class=""
       id="path2-3" />
  </g>
  <g
     sodipodi:insensitive="true"
     style="display:inline"
     inkscape:label="link"
     id="layer3"
     inkscape:groupmode="layer">
    <path
       id="path976"
       class=""
       d="m 299.31598,187.76129 c 36.37964,36.41738 35.88034,94.80369 0.2192,130.66272 -0.067,0.073 -0.14613,0.15223 -0.2192,0.22529 l -40.91772,40.91773 c -36.0892,36.08919 -94.80431,36.08432 -130.88802,0 -36.089139,-36.0831 -36.089139,-94.80491 0,-130.88802 l 22.59364,-22.59364 c 5.99153,-5.99153 16.30986,-2.00935 16.61918,6.45793 0.39457,10.79084 2.32963,21.63221 5.9002,32.10154 1.20926,3.54499 0.34523,7.46627 -2.30346,10.11496 l -7.96861,7.96861 c -17.06488,17.06489 -17.60009,44.85119 -0.70327,62.08291 17.06367,17.4016 45.11058,17.50511 62.30516,0.31054 l 40.91772,-40.91165 c 17.16535,-17.16535 17.09351,-44.91024 0,-62.00374 -2.25352,-2.24926 -4.52347,-3.99679 -6.29657,-5.21763 a 9.7648453,9.7648453 0 0 1 -4.23,-7.67572 c -0.24112,-6.43419 2.03858,-13.06445 7.12286,-18.14871 l 12.81966,-12.82029 c 3.36171,-3.3617 8.63535,-3.77453 12.53349,-1.054 a 92.845489,92.845489 0 0 1 12.49574,10.47117 z m 85.81458,-85.81887 c -36.08371,-36.084336 -94.79882,-36.089207 -130.88801,0 l -40.91773,40.91776 c -0.073,0.073 -0.15222,0.15222 -0.2192,0.22529 -35.66053,35.85903 -36.16043,94.24533 0.2192,130.66272 a 92.82844,92.82844 0 0 0 12.49513,10.47055 c 3.89814,2.72055 9.17239,2.3071 12.53349,-1.054 l 12.81967,-12.82027 c 5.08427,-5.08428 7.36397,-11.71453 7.12285,-18.14872 a 9.7648453,9.7648453 0 0 0 -4.22999,-7.67573 c -1.7731,-1.22084 -4.04307,-2.96836 -6.29659,-5.21762 -17.09349,-17.0935 -17.16535,-44.8384 0,-62.00375 l 40.91774,-40.91163 c 17.19457,-17.19459 45.24087,-17.09107 62.30515,0.31053 16.89683,17.23173 16.36222,45.01803 -0.70328,62.08291 l -7.9686,7.96861 c -2.64869,2.64868 -3.51271,6.56997 -2.30345,10.11495 3.57056,10.46934 5.50563,21.31071 5.9002,32.10154 0.30991,8.46729 10.62764,12.44947 16.61916,6.45794 l 22.59365,-22.59365 c 36.08981,-36.08249 36.08981,-94.8043 6.1e-4,-130.88743 z"
       fill="currentColor"
       style="stroke-width:0.608895" />
  </g>
</svg>
